{
  "consumer": {
    "name": "rams"
  },
  "provider": {
    "name": "lmo"
  },
  "interactions": [
    {
      "description": "a request for lmo",
      "providerState": "lmo 1 exists and it has downtime",
      "request": {
        "method": "GET",
        "path": "/api/1/phases/maintenance/downtime",
        "matchingRules": {
          "$.path": {
            "match": "regex",
            "regex": "\\/api\\/\\d+\\/phases\\/maintenance\\/downtime"
          }
        }
      },
      "response": {
        "status": 200,
        "headers": {
        },
        "body": {
          "project_life": 10,
          "n_devices": 2,
          "downtime": [
            {
              "device_id": "device11",
              "downtime_table": {
                "year": [
                  1
                ],
                "jan": [
                  1.5
                ],
                "feb": [
                  1.5
                ],
                "mar": [
                  1.5
                ],
                "apr": [
                  1.5
                ],
                "may": [
                  1.5
                ],
                "jun": [
                  1.5
                ],
                "jul": [
                  1.5
                ],
                "aug": [
                  1.5
                ],
                "sep": [
                  1.5
                ],
                "oct": [
                  1.5
                ],
                "nov": [
                  1.5
                ],
                "dec": [
                  1.5
                ]
              }
            }
          ]
        },
        "matchingRules": {
          "$.body": {
            "match": "type"
          },
          "$.body.project_life": {
            "match": "type"
          },
          "$.body.n_devices": {
            "match": "type"
          },
          "$.body.downtime": {
            "min": 1
          },
          "$.body.downtime[*].*": {
            "match": "type"
          },
          "$.body.downtime[*].device_id": {
            "match": "type"
          },
          "$.body.downtime[*].downtime_table": {
            "match": "type"
          },
          "$.body.downtime[*].downtime_table.year": {
            "min": 1
          },
          "$.body.downtime[*].downtime_table.year[*].*": {
            "match": "type"
          },
          "$.body.downtime[*].downtime_table.jan": {
            "min": 1
          },
          "$.body.downtime[*].downtime_table.jan[*].*": {
            "match": "type"
          },
          "$.body.downtime[*].downtime_table.feb": {
            "min": 1
          },
          "$.body.downtime[*].downtime_table.feb[*].*": {
            "match": "type"
          },
          "$.body.downtime[*].downtime_table.mar": {
            "min": 1
          },
          "$.body.downtime[*].downtime_table.mar[*].*": {
            "match": "type"
          },
          "$.body.downtime[*].downtime_table.apr": {
            "min": 1
          },
          "$.body.downtime[*].downtime_table.apr[*].*": {
            "match": "type"
          },
          "$.body.downtime[*].downtime_table.may": {
            "min": 1
          },
          "$.body.downtime[*].downtime_table.may[*].*": {
            "match": "type"
          },
          "$.body.downtime[*].downtime_table.jun": {
            "min": 1
          },
          "$.body.downtime[*].downtime_table.jun[*].*": {
            "match": "type"
          },
          "$.body.downtime[*].downtime_table.jul": {
            "min": 1
          },
          "$.body.downtime[*].downtime_table.jul[*].*": {
            "match": "type"
          },
          "$.body.downtime[*].downtime_table.aug": {
            "min": 1
          },
          "$.body.downtime[*].downtime_table.aug[*].*": {
            "match": "type"
          },
          "$.body.downtime[*].downtime_table.sep": {
            "min": 1
          },
          "$.body.downtime[*].downtime_table.sep[*].*": {
            "match": "type"
          },
          "$.body.downtime[*].downtime_table.oct": {
            "min": 1
          },
          "$.body.downtime[*].downtime_table.oct[*].*": {
            "match": "type"
          },
          "$.body.downtime[*].downtime_table.nov": {
            "min": 1
          },
          "$.body.downtime[*].downtime_table.nov[*].*": {
            "match": "type"
          },
          "$.body.downtime[*].downtime_table.dec": {
            "min": 1
          },
          "$.body.downtime[*].downtime_table.dec[*].*": {
            "match": "type"
          }
        }
      }
    }
  ],
  "metadata": {
    "pactSpecification": {
      "version": "2.0.0"
    }
  }
}