{
  "data": {
    "metric_results": [
      {
        "absolute_distance": null,
        "metric": "LCOE",
        "percent_distance": null,
        "result": null,
        "threshold": 150,
        "threshold_passed": false,
        "threshold_type": "upper",
        "unit": "Euro/kWh",
        "evaluation_area": "Affordability"
      },
      {
        "absolute_distance": null,
        "metric": "Capacity factor",
        "percent_distance": null,
        "result": null,
        "threshold": 20,
        "threshold_passed": false,
        "threshold_type": "lower",
        "unit": "%",
        "evaluation_area": "Power Capture"
      }
    ],
    "responses": {
      "description": null,
      "entry_stage": 1,
      "exit_stage": 2,
      "framework": 1,
      "id": 1,
      "name": "Stage Gate 1 - 2",
      "question_categories": [
        {
          "description": "Cupidatat dolore irure in sint minim in non.",
          "id": 1,
          "name": "Question Category A",
          "questions": [
            {
              "applicant_results": {
                "absolute_distance": null,
                "id": 1,
                "justification": null,
                "percent_distance": null,
                "response": null,
                "result": null,
                "threshold_passed": false
              },
              "description": "Cupidatat dolore irure in sint minim in non.",
              "further_details": "Further details describing the Stage Gate question.",
              "id": 1,
              "name": "Question A1",
              "number": 1,
              "question_category": 1,
              "question_metric": {
                "id": 1,
                "metric": {
                  "evaluation_area": {
                    "description": "desc",
                    "id": 7,
                    "name": "Affordability"
                  },
                  "id": 1,
                  "name": "LCOE",
                  "threshold_type": "upper",
                  "unit": "Euro/kWh"
                },
                "threshold": 150,
                "threshold_bool": true
              },
              "rubric": 1,
              "scoring_criteria": [
                {
                  "description": "Description of the first scoring criterion being assessed in the question",
                  "id": 1,
                  "name": "First scoring criterion",
                  "question": 1
                },
                {
                  "description": "Description of the second scoring criterion being assessed in the question",
                  "id": 2,
                  "name": "Second scoring criterion",
                  "question": 1
                }
              ],
              "weighting": 0.25
            },
            {
              "applicant_results": {
                "id": 2,
                "justification": null,
                "response": null,
                "result": null
              },
              "description": "Cupidatat dolore irure in sint minim in non.",
              "further_details": "Further details describing the Stage Gate question.",
              "id": 2,
              "name": "Question A2",
              "number": 2,
              "question_category": 1,
              "question_metric": null,
              "rubric": 1,
              "scoring_criteria": [
                {
                  "description": "Description of the first scoring criterion being assessed in the question",
                  "id": 3,
                  "name": "First scoring criterion",
                  "question": 2
                },
                {
                  "description": "Description of the second scoring criterion being assessed in the question",
                  "id": 4,
                  "name": "Second scoring criterion",
                  "question": 2
                }
              ],
              "weighting": 0.25
            }
          ],
          "stage_gate": 1
        },
        {
          "description": "Cupidatat dolore irure in sint minim in non.",
          "id": 2,
          "name": "Question Category B",
          "questions": [
            {
              "applicant_results": {
                "id": 3,
                "justification": null,
                "response": null,
                "result": null
              },
              "description": "Cupidatat dolore irure in sint minim in non.",
              "further_details": "Further details describing the Stage Gate question.",
              "id": 3,
              "name": "Question B1",
              "number": 1,
              "question_category": 2,
              "question_metric": null,
              "rubric": 1,
              "scoring_criteria": [
                {
                  "description": "Description of the first scoring criterion being assessed in the question",
                  "id": 5,
                  "name": "First scoring criterion",
                  "question": 3
                },
                {
                  "description": "Description of the second scoring criterion being assessed in the question",
                  "id": 6,
                  "name": "Second scoring criterion",
                  "question": 3
                }
              ],
              "weighting": 0.25
            },
            {
              "applicant_results": {
                "absolute_distance": null,
                "id": 4,
                "justification": null,
                "percent_distance": null,
                "response": null,
                "result": null,
                "threshold_passed": false
              },
              "description": "Cupidatat dolore irure in sint minim in non.",
              "further_details": "Further details describing the Stage Gate question.",
              "id": 4,
              "name": "Question B2",
              "number": 2,
              "question_category": 2,
              "question_metric": {
                "id": 2,
                "metric": {
                  "evaluation_area": {
                    "description": "desc",
                    "id": 11,
                    "name": "Energy Capture"
                  },
                  "id": 2,
                  "name": "Capacity factor",
                  "threshold_type": "lower",
                  "unit": "%"
                },
                "threshold": 20,
                "threshold_bool": true
              },
              "rubric": 1,
              "scoring_criteria": [
                {
                  "description": "Description of the first scoring criterion being assessed in the question",
                  "id": 7,
                  "name": "First scoring criterion",
                  "question": 4
                },
                {
                  "description": "Description of the second scoring criterion being assessed in the question",
                  "id": 8,
                  "name": "Second scoring criterion",
                  "question": 4
                }
              ],
              "weighting": 0.25
            }
          ],
          "stage_gate": 1
        }
      ]
    },
    "summary_data": {
      "response_rate": 0,
      "threshold_success_rate": 0
    }
  }
}
