{
    "data": {
        "_links": {
            "collection": "/api/stage-gate-studies/",
            "self": "/api/stage-gate-studies/1"
        },
        "checklist_study_complete": false,
        "description": "test",
        "framework": "DTOceanPlus Framework template",
        "framework_id": 1,
        "id": 1,
        "name": "Test"
    }
}